{
  "intents": [
    {
      "intent": "AddMilestone",
      "slots": []
    },
    {
      "intent": "GetName",
      "slots": [
        {
          "name": "MilestoneName",
          "type": "AMAZON.LITERAL"
        }
      ]
    },
    {
      "intent": "GetDate",
      "slots": [
        {
          "name": "MilestoneDate",
          "type": "AMAZON.DATE"
        }
      ]
    },
    {
      "intent": "GetAmount",
      "slots": [
        {
          "name": "Amount",
          "type": "AMAZON.NUMBER"
        }
      ]
    },
    {
      "intent": "LogInAs",
      "slots": [
        {
          "name": "UserName",
          "type": "AMAZON.US_FIRST_NAME"
        }
      ]
    },
    {
      "intent": "SwitchToAccount",
      "slots": [
        {
          "name": "AccountName",
          "type": "AMAZON.LITERAL"
        }
      ]
    },
    {
      "intent": "ViewMilestones",
      "slots": []
    },
    {
      "intent": "DeleteMilestone",
      "slots": [
        {
          "name": "MilestoneDeleteName",
          "type": "AMAZON.LITERAL"
        }
      ]
    },
    {
      "intent": "GetCurrentState",
      "slots": []
    },
    {
      "intent": "DecisionYes",
      "slots": []
    },
    {
      "intent": "DecisionNo",
      "slots": []
    },
    {
      "intent": "DecisionBack",
      "slots": []
    },
    {
      "intent": "MenuOptionSpecificDate",
      "slots": []
    },
    {
      "intent": "MenuOptionSpecificAmount",
      "slots": []
    },
    {
      "intent": "MenuOptionAssistMe",
      "slots": []
    },
    {
      "intent": "GetUserID",
      "slots": [
        {
          "name": "UserID",
          "type": "AMAZON.NUMBER"
        }
      ]
    },
    {
      "intent": "OptionOne",
      "slots": []
    },
    {
      "intent": "OptionTwo",
      "slots": []
    },
    {
      "intent": "OptionThree",
      "slots": []
    }
  ]
}